19335
4053
2047
14411
20081
1001
11282
2011
9152
1050
1123
2030
4063
1077
14084
19334
9160
11297
2068
2049
2050
18371
11215
11216
11165
2011
6194
2010
19296
2046
2014
16124
11677
1125
2069
4708
42270
2004
18372
2027
11156
20027
2044
9216
1022
1054
42137
2064
2063
2028
12061
11143
11124
11951
1230
9150
9156
9299
2031
11529
2021
2016
4679
7935
12155
4058
11291
2048
2025
2054
2001
20020
2038
11546
6971
12147
19350
2018
2041
1124
2009
1049
12023
1116
19080
2013
11265
2015
4582
10864
1032
15271
2006
14050
16005
9078
12177
12142
20055
18079
19165
14037
14187
9195
1156
11182
15164
43406
11268
1019
9050
11957
15172
6169
10220
1056
9176
14121
9421
9004
16104
19173
11959
11206
9021
9205
2023
11935
2055
14555
12120
2043
2037
12151
11457
11954
14006
11246
9214
4517
5305
9193
11063
15076
11298
14223
9236
11591
9040
9286
11977
11251
15170
9089
11080
17142
7074
9070
9291
42289
6631
20649
12014
6175
11356
11362
14414
2002
3166
19303
12087
17224
42291
20321
20127
36029
19095
43134
14102
17425
15101
20033
5137
11435
36615
13926
23528
10010